Multiple predictors
…
.question[
Suppose the barometric pressure, temperature, and precipitation are equal to the
mean values in our dataset. What would the predicted dew point be? Is this close
to the mean dew point in our dataset?
]

---

### More `augment` fun

Let's revisit the `augment`ed model output.

```
## # A tibble: 1,500 x 11
##     DEWP  PRES  TEMP  RAIN .fitted .se.fit  .resid    .hat .sigma .cooksd
##    <dbl> <dbl> <dbl> <dbl>   <dbl>   <dbl>   <dbl>   <dbl>  <dbl>   <dbl>
##  1 -15.1 1025.   0.5     0 -11.6     0.306  -3.52  1.65e-3   7.55 9.00e-5
##  2 -12.8 1022.  -2.2     0 -12.6     0.339  -0.178 2.01e-3   7.55 2.82e-7
##  3 -11.6 1018.  -5.2     0 -13.4     0.471   1.81  3.89e-3   7.55 5.64e-5
##  4 -12.2 1017.   7.1     0  -3.86    0.225  -8.34  8.92e-4   7.55 2.73e-4
##  5 -14.2 1020.   6       0  -5.89    0.242  -8.31  1.02e-3   7.55 3.11e-4
##  6 -14.3 1022.  11.5     0  -2.71    0.348 -11.6   2.12e-3   7.54 1.26e-3
##  7  -7   1010.   5.6     0  -2.65    0.375  -4.35  2.46e-3   7.55 2.05e-4
##  8  -6.6 1011.   8.4     0  -0.772   0.294  -5.83  1.52e-3   7.55 2.27e-4
##  9  -6.2 1010.   8.8     0  -0.337   0.295  -5.86  1.53e-3   7.55 2.31e-4
## 10  -4.6 1007   14.7     0   5.17    0.261  -9.77  1.19e-3   7.55 5.00e-4
## # ... with 1,490 more rows, and 1 more variable: .std.resid <dbl>
```
…
