Multiple regression
…
\[\widehat{DEWP} = 360.7 - 0.36PRES + 0.72 TEMP + 1.15RAIN,\]

and can be used to predict dew points given the barometric pressure, temperature, and precipitation (simply plug into the model). Try to answer the following question, which will require some dplyr manipulation:

Suppose the barometric pressure, temperature, and precipitation are equal to the mean values in our dataset. What would the predicted dew point be?

Is this prediction close to the mean dew point in our dataset?

We can actually obtain the predicted values using code, without having to deal with messy algebra. We will use the augment function. Lets try it out on our model object:

## # A tibble: 1,500 x 11
##     DEWP  PRES  TEMP  RAIN .fitted .se.fit  .resid    .hat .sigma .cooksd
##    <dbl> <dbl> <dbl> <dbl>   <dbl>   <dbl>   <dbl>   <dbl>  <dbl>   <dbl>
##  1 -15.1 1025.   0.5     0 -11.6     0.306  -3.52  1.65e-3   7.55 9.00e-5
##  2 -12.8 1022.  -2.2     0 -12.6     0.339  -0.178 2.01e-3   7.55 2.82e-7
##  3 -11.6 1018.  -5.2     0 -13.4     0.471   1.81  3.89e-3   7.55 5.64e-5
##  4 -12.2 1017.   7.1     0  -3.86    0.225  -8.34  8.92e-4   7.55 2.73e-4
##  5 -14.2 1020.   6       0  -5.89    0.242  -8.31  1.02e-3   7.55 3.11e-4
##  6 -14.3 1022.  11.5     0  -2.71    0.348 -11.6   2.12e-3   7.54 1.26e-3
##  7  -7   1010.   5.6     0  -2.65    0.375  -4.35  2.46e-3   7.55 2.05e-4
##  8  -6.6 1011.   8.4     0  -0.772   0.294  -5.83  1.52e-3   7.55 2.27e-4
##  9  -6.2 1010.   8.8     0  -0.337   0.295  -5.86  1.53e-3   7.55 2.31e-4
## 10  -4.6 1007   14.7     0   5.17    0.261  -9.77  1.19e-3   7.55 5.00e-4
## # ... with 1,490 more rows, and 1 more variable: .std.resid <dbl>
…
So far, we have blindly fit linear models without caring about any assumptions. However, like all statistical techniques, there are a few main assumptions to the linear model:

The outcomes \(y_i\) are independent. This means that observations do not influence each other in any way (e.g., repeated outcome measures are made on the same individual)

A linear relationship holds (though we can relax this to some extent)

The error terms are normally distributed, with mean zero and constant variance across all predicted/fitted values

Many of the assumptions deal with the error term and fitted values, which we might estimate using the residuals and predictions from our model. Luckily, we can use the augment function from the broom package to calculate these. Lets consider the multiple regression model from earlier, focusing on the .fitted and .resid variables in this data frame:

augment(mod2) %>% 
  select(.fitted, .resid)

## # A tibble: 1,500 x 2
##    .fitted  .resid
##      <dbl>   <dbl>
##  1 -11.6    -3.52 
##  2 -12.6    -0.178
##  3 -13.4     1.81 
##  4  -3.86   -8.34 
##  5  -5.89   -8.31 
##  6  -2.71  -11.6  
##  7  -2.65   -4.35 
##  8  -0.772  -5.83 
##  9  -0.337  -5.86 
## 10   5.17   -9.77 
## # ... with 1,490 more rows
…
