Text analysis
…
Text data often contains tokens, which are the individual units of meaning in text data. Suppose we are interested in individual words. We can obtain the tokens from our text by using the unnest_tokens function in the tidytext package:

text_df %>%
  unnest_tokens(word, text)

## # A tibble: 34 x 2
##     line word 
##    <int> <chr>
##  1     1 on   
##  2     1 your 
##  3     1 mark 
##  4     1 ready
##  5     1 set  
##  6     1 let's
##  7     1 go   
##  8     2 dance
##  9     2 floor
## 10     2 pro  
## # ... with 24 more rows
…
Now lets tidy up the lyrics!

ariana_lyrics <- ariana %>%
  unnest_tokens(word, lyric)

national_lyrics <- national %>%
  unnest_tokens(word, lyric)

What are the most common words?

ariana_lyrics %>%
  count(word) %>%
  arrange(desc(n))

## # A tibble: 685 x 2
##    word      n
##    <chr> <int>
##  1 i       241
##  2 you     232
##  3 yeah    193
##  4 it      163
##  5 a        89
##  6 i'm      86
##  7 me       83
##  8 the      76
##  9 and      74
## 10 my       71
## # ... with 675 more rows

national_lyrics %>%
  count(word) %>%
  arrange(desc(n))

## # A tibble: 710 x 2
##    word      n
##    <chr> <int>
##  1 i       184
##  2 you     143
##  3 the     126
##  4 to       90
##  5 me       75
##  6 and      74
##  7 is       68
##  8 in       60
##  9 a        58
## 10 i'm      53
## # ... with 700 more rows

Stop words

In computing, stop words are words which are filtered out before or after processing of natural language data (text). They usually refer to the most common words in a language, but there is not asingle list of stop words used by all natural language processing tools. See ?get_stopwords for more info.

get_stopwords(source = "smart")

## # A tibble: 571 x 2
##    word        lexicon
##    <chr>       <chr>  
##  1 a           smart  
##  2 a's         smart  
##  3 able        smart  
##  4 about       smart  
##  5 above       smart  
##  6 according   smart  
##  7 accordingly smart  
##  8 across      smart  
##  9 actually    smart  
## 10 after       smart  
## # ... with 561 more rows

Lets ignore stop words when looking at the most common words used by Ariana Grade and The National. What differences do you notice?

stopwords <- get_stopwords(source = "smart") %>% 
  select(word) %>% 
  pull()

ariana_lyrics %>%
  filter(!(word %in% stopwords)) %>%
  count(word) %>%
  arrange(desc(n))

## # A tibble: 458 x 2
##    word           n
##    <chr>      <int>
##  1 yeah         193
##  2 eh            42
##  3 love          41
##  4 i'ma          37
##  5 girlfriend    31
##  6 imagine       30
##  7 forget        27
##  8 make          24
##  9 space         24
## 10 bad           19
## # ... with 448 more rows

national_lyrics %>%
  filter(!(word %in% stopwords)) %>%
  count(word) %>%
  arrange(desc(n))

## # A tibble: 488 x 2
##    word           n
##    <chr>      <int>
##  1 time          20
##  2 eyes          15
##  3 light         13
##  4 learning      12
##  5 lightyears    12
##  6 hands         11
##  7 head          11
##  8 quiet         11
##  9 standing      11
## 10 feeling       10
## # ... with 478 more rows
…
Sentiment analysis

One way to analyze the sentiment of a text is to consider the text as a combination of its individual words The sentiment content of the whole text is the sum of the sentiments of the individual words The sentiment attached to each word is given by a lexicon, which may be downloaded from external sources. Lets take a look at a few exapmles:

get_sentiments("afinn")

## # A tibble: 2,477 x 2
##    word       value
##    <chr>      <dbl>
##  1 abandon       -2
##  2 abandoned     -2
##  3 abandons      -2
##  4 abducted      -2
##  5 abduction     -2
##  6 abductions    -2
##  7 abhor         -3
##  8 abhorred      -3
##  9 abhorrent     -3
## 10 abhors        -3
## # ... with 2,467 more rows

get_sentiments("bing") 

## # A tibble: 6,786 x 2
##    word        sentiment
##    <chr>       <chr>    
##  1 2-faces     negative 
##  2 abnormal    negative 
##  3 abolish     negative 
##  4 abominable  negative 
##  5 abominably  negative 
##  6 abominate   negative 
##  7 abomination negative 
##  8 abort       negative 
##  9 aborted     negative 
## 10 aborts      negative 
## # ... with 6,776 more rows

get_sentiments("nrc")

## # A tibble: 13,901 x 2
##    word        sentiment
##    <chr>       <chr>    
##  1 abacus      trust    
##  2 abandon     fear     
##  3 abandon     negative 
##  4 abandon     sadness  
##  5 abandoned   anger    
##  6 abandoned   fear     
##  7 abandoned   negative 
##  8 abandoned   sadness  
##  9 abandonment anger    
## 10 abandonment fear     
## # ... with 13,891 more rows

get_sentiments("loughran") 

## # A tibble: 4,150 x 2
##    word         sentiment
##    <chr>        <chr>    
##  1 abandon      negative 
##  2 abandoned    negative 
##  3 abandoning   negative 
##  4 abandonment  negative 
##  5 abandonments negative 
##  6 abandons     negative 
##  7 abdicated    negative 
##  8 abdicates    negative 
##  9 abdicating   negative 
## 10 abdication   negative 
## # ... with 4,140 more rows
…
