Tidy data wrangling
…
.pull-right[
- Pokemon #1: Bulbasaur (Grass/Poison type)
- Non-legendary, Generation 1 (Red/Blue/Yellow)
- 0.7 meters, 6.9 kilograms
- Base stat total 318 
- 45 HP, 49 ATK, 49 DEF, 65 SPA, 65 SPD, 45 SPE
]

---

## Pokemon dataset

```
## # A tibble: 1,028 x 15
##    pokedex_number name  generation leg_status type_1 type_2 height_m weight_kg
##             <dbl> <chr>      <dbl> <chr>      <chr>  <chr>     <dbl>     <dbl>
##  1              1 Bulb~          1 Non-legen~ Grass  Poison      0.7       6.9
##  2              2 Ivys~          1 Non-legen~ Grass  Poison      1        13  
##  3              3 Venu~          1 Non-legen~ Grass  Poison      2       100  
##  4              3 Mega~          1 Non-legen~ Grass  Poison      2.4     156. 
##  5              4 Char~          1 Non-legen~ Fire   None        0.6       8.5
##  6              5 Char~          1 Non-legen~ Fire   None        1.1      19  
##  7              6 Char~          1 Non-legen~ Fire   Flying      1.7      90.5
##  8              6 Mega~          1 Non-legen~ Fire   Dragon      1.7     110. 
##  9              6 Mega~          1 Non-legen~ Fire   Flying      1.7     100. 
## 10              7 Squi~          1 Non-legen~ Water  None        0.5       9  
## # ... with 1,018 more rows, and 7 more variables: bst <dbl>, hp <dbl>,
## #   atk <dbl>, def <dbl>, spa <dbl>, spd <dbl>, spe <dbl>
```

---

## Datasets vs. summary tables 

.question[
What is the difference between the two tables below?
]

.small[
.pull-left[

```
## # A tibble: 1,028 x 3
##    name             type_1 type_2
##    <chr>            <chr>  <chr> 
##  1 Bulbasaur        Grass  Poison
##  2 Ivysaur          Grass  Poison
##  3 Venusaur         Grass  Poison
##  4 Mega Venusaur    Grass  Poison
##  5 Charmander       Fire   None  
##  6 Charmeleon       Fire   None  
##  7 Charizard        Fire   Flying
##  8 Mega Charizard X Fire   Dragon
##  9 Mega Charizard Y Fire   Flying
## 10 Squirtle         Water  None  
## # ... with 1,018 more rows
```
…
class: center, middle

# Data wrangling examples

---

## `filter` to select a subset of rows

```r
pokemon %>%
* filter(leg_status == "Legendary")
```

```
## # A tibble: 39 x 15
##    pokedex_number name  generation leg_status type_1 type_2 height_m weight_kg
##             <dbl> <chr>      <dbl> <chr>      <chr>  <chr>     <dbl>     <dbl>
##  1            150 Mewt~          1 Legendary  Psych~ None        2        122 
##  2            150 Mega~          1 Legendary  Psych~ Fight~      2.3      127 
##  3            150 Mega~          1 Legendary  Psych~ None        1.5       33 
##  4            249 Lugia          2 Legendary  Psych~ Flying      5.2      216 
##  5            250 Ho-oh          2 Legendary  Fire   Flying      3.8      199 
##  6            382 Kyog~          3 Legendary  Water  None        4.5      352 
##  7            382 Prim~          3 Legendary  Water  None        9.8      430 
##  8            383 Grou~          3 Legendary  Ground None        3.5      950 
##  9            383 Prim~          3 Legendary  Ground Fire        5       1000.
## 10            384 Rayq~          3 Legendary  Dragon Flying      7        206.
## # ... with 29 more rows, and 7 more variables: bst <dbl>, hp <dbl>, atk <dbl>,
## #   def <dbl>, spa <dbl>, spd <dbl>, spe <dbl>
```

---

## `filter` to select a subset of rows

```r
pokemon %>%
* filter(type_1 == "Grass" | type_2 == "Grass")
```

```
## # A tibble: 117 x 15
##    pokedex_number name  generation leg_status type_1 type_2 height_m weight_kg
##             <dbl> <chr>      <dbl> <chr>      <chr>  <chr>     <dbl>     <dbl>
##  1              1 Bulb~          1 Non-legen~ Grass  Poison      0.7       6.9
##  2              2 Ivys~          1 Non-legen~ Grass  Poison      1        13  
##  3              3 Venu~          1 Non-legen~ Grass  Poison      2       100  
##  4              3 Mega~          1 Non-legen~ Grass  Poison      2.4     156. 
##  5             43 Oddi~          1 Non-legen~ Grass  Poison      0.5       5.4
##  6             44 Gloom          1 Non-legen~ Grass  Poison      0.8       8.6
##  7             45 Vile~          1 Non-legen~ Grass  Poison      1.2      18.6
##  8             46 Paras          1 Non-legen~ Bug    Grass       0.3       5.4
##  9             47 Para~          1 Non-legen~ Bug    Grass       1        29.5
## 10             69 Bell~          1 Non-legen~ Grass  Poison      0.7       4  
## # ... with 107 more rows, and 7 more variables: bst <dbl>, hp <dbl>, atk <dbl>,
## #   def <dbl>, spa <dbl>, spd <dbl>, spe <dbl>
```

---

## `select` to keep variables

```r
pokemon %>%
  filter(type_1 == "Grass" | type_2 == "Grass") %>% 
* select(name, type_1, type_2, height_m, weight_kg)
```

```
## # A tibble: 117 x 5
##    name          type_1 type_2 height_m weight_kg
##    <chr>         <chr>  <chr>     <dbl>     <dbl>
##  1 Bulbasaur     Grass  Poison      0.7       6.9
##  2 Ivysaur       Grass  Poison      1        13  
##  3 Venusaur      Grass  Poison      2       100  
##  4 Mega Venusaur Grass  Poison      2.4     156. 
##  5 Oddish        Grass  Poison      0.5       5.4
##  6 Gloom         Grass  Poison      0.8       8.6
##  7 Vileplume     Grass  Poison      1.2      18.6
##  8 Paras         Bug    Grass       0.3       5.4
##  9 Parasect      Bug    Grass       1        29.5
## 10 Bellsprout    Grass  Poison      0.7       4  
## # ... with 107 more rows
```

---

## `select` to exclude variables

```r
pokemon %>%
  filter(type_1 == "Grass" | type_2 == "Grass") %>% 
* select(-pokedex_number, -generation, -leg_status, -type_1, -type_2)
```

```
## # A tibble: 117 x 10
##    name          height_m weight_kg   bst    hp   atk   def   spa   spd   spe
##    <chr>            <dbl>     <dbl> <dbl> <dbl> <dbl> <dbl> <dbl> <dbl> <dbl>
##  1 Bulbasaur          0.7       6.9   318    45    49    49    65    65    45
##  2 Ivysaur            1        13     405    60    62    63    80    80    60
##  3 Venusaur           2       100     525    80    82    83   100   100    80
##  4 Mega Venusaur      2.4     156.    625    80   100   123   122   120    80
##  5 Oddish             0.5       5.4   320    45    50    55    75    65    30
##  6 Gloom              0.8       8.6   395    60    65    70    85    75    40
##  7 Vileplume          1.2      18.6   490    75    80    85   110    90    50
##  8 Paras              0.3       5.4   285    35    70    55    45    55    25
##  9 Parasect           1        29.5   405    60    95    80    60    80    30
## 10 Bellsprout         0.7       4     300    50    75    35    70    30    40
## # ... with 107 more rows
```

---

## `select` a range of variables

```r
pokemon %>%
  filter(type_1 == "Grass" | type_2 == "Grass") %>% 
* select(name, bst:spe)
```

```
## # A tibble: 117 x 8
##    name            bst    hp   atk   def   spa   spd   spe
##    <chr>         <dbl> <dbl> <dbl> <dbl> <dbl> <dbl> <dbl>
##  1 Bulbasaur       318    45    49    49    65    65    45
##  2 Ivysaur         405    60    62    63    80    80    60
##  3 Venusaur        525    80    82    83   100   100    80
##  4 Mega Venusaur   625    80   100   123   122   120    80
##  5 Oddish          320    45    50    55    75    65    30
##  6 Gloom           395    60    65    70    85    75    40
##  7 Vileplume       490    75    80    85   110    90    50
##  8 Paras           285    35    70    55    45    55    25
##  9 Parasect        405    60    95    80    60    80    30
## 10 Bellsprout      300    50    75    35    70    30    40
## # ... with 107 more rows
```
…
